Means and Uncertainty
…
.column[.content[

```r
sum1 <- gli %>%  
* group_by(lake)
 
sum1
```
]]
.column[.content[

```
# A tibble: 235 x 5
# Groups:   lake [5]
   lake      year date   max.cover decade
   <fct>    <int> <fct>      <dbl> <fct> 
 1 Superior  1973 27-Feb      69.8 1970s 
 2 Superior  1974 27-Feb      73.8 1970s 
 3 Superior  1975 13-Feb      64.9 1970s 
 4 Superior  1976 16-Mar      49.9 1970s 
 5 Superior  1977 16-Feb      96   1970s 
 6 Superior  1978 1-Mar       92.5 1970s 
 7 Superior  1979 25-Feb      97.1 1970s 
 8 Superior  1980 5-Mar       77.2 1980s 
 9 Superior  1981 11-Feb      84.7 1980s 
10 Superior  1982 9-Mar       85.3 1980s 
# ... with 225 more rows
```
…
