Graphing Univariate Groups
…
.column[.content[

```r
gss_sum1 <- gss %>%  
* group_by(GRNSOL)
 
gss_sum1
```
]]
.column[.content[

```
# A tibble: 1,364 x 6
# Groups:   GRNSOL [5]
   SEX    RACE  DEGREE         GRNCON   ENPRBUS GRNSOL    
   <fct>  <fct> <fct>          <fct>      <int> <fct>     
 1 Male   Other Bachelors      Neither        9 Fairly    
 2 Female White Bachelors      Somewhat       9 Fairly    
 3 Female White Less than HS   Neither        3 Not At All
 4 Female Black Junior College Neither        6 Neither   
 5 Female Black High School    Very           1 Very      
 6 Female Black Junior College Very           1 Not At All
 7 Male   Other High School    Very           7 Fairly    
 8 Male   Black High School    Not Much       1 Not At All
 9 Female White Less than HS   Neither        2 Not At All
10 Female White Junior College Neither        1 Not At All
# ... with 1,354 more rows
```
…
.column[.content[

```r
gss_sum2 <- gss %>%  
* group_by(SEX,GRNSOL)
 
gss_sum2
```
]]
.column[.content[

```
# A tibble: 1,364 x 6
# Groups:   SEX, GRNSOL [10]
   SEX    RACE  DEGREE         GRNCON   ENPRBUS GRNSOL    
   <fct>  <fct> <fct>          <fct>      <int> <fct>     
 1 Male   Other Bachelors      Neither        9 Fairly    
 2 Female White Bachelors      Somewhat       9 Fairly    
 3 Female White Less than HS   Neither        3 Not At All
 4 Female Black Junior College Neither        6 Neither   
 5 Female Black High School    Very           1 Very      
 6 Female Black Junior College Very           1 Not At All
 7 Male   Other High School    Very           7 Fairly    
 8 Male   Black High School    Not Much       1 Not At All
 9 Female White Less than HS   Neither        2 Not At All
10 Female White Junior College Neither        1 Not At All
# ... with 1,354 more rows
```
…
```r
gss_sum3 <- gss %>%  
  group_by(DEGREE,GRNSOL) %>%  
  summarize(freq=n()) %>%  
  mutate(perc=freq/sum(freq)*100) %>%  
  ungroup()  
 
gss_sum3
```
]]
.column[.content[

```
# A tibble: 25 x 4
   DEGREE       GRNSOL      freq  perc
   <fct>        <fct>      <int> <dbl>
 1 Less than HS Not At All    53 28.0 
 2 Less than HS Not Very      32 16.9 
 3 Less than HS Neither       44 23.3 
 4 Less than HS Fairly        50 26.5 
 5 Less than HS Very          10  5.29
 6 High School  Not At All   196 29.4 
 7 High School  Not Very     125 18.7 
 8 High School  Neither      142 21.3 
 9 High School  Fairly       172 25.8 
10 High School  Very          32  4.80
# ... with 15 more rows
```
…
